{
  "project_info": {
    "project_number": "274556104315",
    "project_id": "transporte-c85e0",
    "storage_bucket": "transporte-c85e0.appspot.com"
  },
  "client": [
    {
      "client_info": {
        "mobilesdk_app_id": "1:274556104315:android:7f6fa373c845e0d946fcde",
        "android_client_info": {
          "package_name": "com.example.admin"
        }
      },
      "oauth_client": [],
      "api_key": [
        {
          "current_key": "AIzaSyBIFUTXxBQpYj4NPY0j8PhFumOtQSlEekY"
        }
      ],
      "services": {
        "appinvite_service": {
          "other_platform_oauth_client": []
        }
      }
    },
    {
      "client_info": {
        "mobilesdk_app_id": "1:274556104315:android:636d2ad382f09e9f46fcde",
        "android_client_info": {
          "package_name": "com.example.driver_bus"
        }
      },
      "oauth_client": [],
      "api_key": [
        {
          "current_key": "AIzaSyBIFUTXxBQpYj4NPY0j8PhFumOtQSlEekY"
        }
      ],
      "services": {
        "appinvite_service": {
          "other_platform_oauth_client": []
        }
      }
    },
    {
      "client_info": {
        "mobilesdk_app_id": "1:274556104315:android:2964e7d96639803646fcde",
        "android_client_info": {
          "package_name": "com.example.zmovil_conductor"
        }
      },
      "oauth_client": [],
      "api_key": [
        {
          "current_key": "AIzaSyBIFUTXxBQpYj4NPY0j8PhFumOtQSlEekY"
        }
      ],
      "services": {
        "appinvite_service": {
          "other_platform_oauth_client": []
        }
      }
    },
    {
      "client_info": {
        "mobilesdk_app_id": "1:274556104315:android:ad1c1e94ef797ddb46fcde",
        "android_client_info": {
          "package_name": "com.example.zmovil_pasajero"
        }
      },
      "oauth_client": [],
      "api_key": [
        {
          "current_key": "AIzaSyBIFUTXxBQpYj4NPY0j8PhFumOtQSlEekY"
        }
      ],
      "services": {
        "appinvite_service": {
          "other_platform_oauth_client": []
        }
      }
    }
  ],
  "configuration_version": "1"
}